{
  "photos": {
    "page": 162,
    "pages": 18443,
    "perpage": 25,
    "total": "461069",
    "photo": [
      {
        "id": "49197045711",
        "owner": "185682075@N02",
        "secret": "2ae7fd3f03",
        "server": "65535",
        "farm": 66,
        "title": "Tigers Rumors: Castro, Goodrum, Boyd, Tsutsugo",
        "ispublic": 1,
        "isfriend": 0,
        "isfamily": 0
      },
      {
        "id": "49196932296",
        "owner": "185942321@N08",
        "secret": "e80d44412e",
        "server": "65535",
        "farm": 66,
        "title": "MLB The Show is Set to Begin Arriving on New Platforms as Soon as 2021",
        "ispublic": 1,
        "isfriend": 0,
        "isfamily": 0
      },
      {
        "id": "49196138853",
        "owner": "185682075@N02",
        "secret": "93920ecc58",
        "server": "65535",
        "farm": 66,
        "title": "Pink Sox Notes & Rumors: JBJ, Mookie, Porcello, Holt, Entrance Workplace",
        "ispublic": 1,
        "isfriend": 0,
        "isfamily": 0
      },
      {
        "id": "49196438057",
        "owner": "185682075@N02",
        "secret": "cbedf88557",
        "server": "65535",
        "farm": 66,
        "title": "NPB Notes: Akiyama, Tsutsugo, Rays, A. Sanchez",
        "ispublic": 1,
        "isfriend": 0,
        "isfamily": 0
      },
      {
        "id": "49195721858",
        "owner": "132842335@N05",
        "secret": "a998bac87e",
        "server": "65535",
        "farm": 66,
        "title": "Ball and chain",
        "ispublic": 1,
        "isfriend": 0,
        "isfamily": 0
      },
      {
        "id": "49195784651",
        "owner": "185682075@N02",
        "secret": "1051180238",
        "server": "65535",
        "farm": 66,
        "title": "Gerrit Cole In search of Large Free Agent Contract",
        "ispublic": 1,
        "isfriend": 0,
        "isfamily": 0
      },
      {
        "id": "49194629468",
        "owner": "115103826@N05",
        "secret": "62b9756373",
        "server": "65535",
        "farm": 66,
        "title": "Baseball stadium",
        "ispublic": 1,
        "isfriend": 0,
        "isfamily": 0
      },
      {
        "id": "49195231291",
        "owner": "185682075@N02",
        "secret": "5a5256f17b",
        "server": "65535",
        "farm": 66,
        "title": "Adam Jones Weighing Transfer To Japan",
        "ispublic": 1,
        "isfriend": 0,
        "isfamily": 0
      },
      {
        "id": "49195212136",
        "owner": "27512150@N00",
        "secret": "ca895a86c3",
        "server": "65535",
        "farm": 66,
        "title": "DSCN0448",
        "ispublic": 1,
        "isfriend": 0,
        "isfamily": 0
      },
      {
        "id": "49195212086",
        "owner": "27512150@N00",
        "secret": "4f70e48745",
        "server": "65535",
        "farm": 66,
        "title": "DSCN0446",
        "ispublic": 1,
        "isfriend": 0,
        "isfamily": 0
      },
      {
        "id": "49195405982",
        "owner": "27512150@N00",
        "secret": "a6efb1058a",
        "server": "65535",
        "farm": 66,
        "title": "DSCN0447",
        "ispublic": 1,
        "isfriend": 0,
        "isfamily": 0
      },
      {
        "id": "49195212026",
        "owner": "27512150@N00",
        "secret": "a8c43a00d1",
        "server": "65535",
        "farm": 66,
        "title": "DSCN0445",
        "ispublic": 1,
        "isfriend": 0,
        "isfamily": 0
      },
      {
        "id": "49194648173",
        "owner": "27512150@N00",
        "secret": "17dc204826",
        "server": "65535",
        "farm": 66,
        "title": "DSCN0444",
        "ispublic": 1,
        "isfriend": 0,
        "isfamily": 0
      },
      {
        "id": "49194648118",
        "owner": "27512150@N00",
        "secret": "28b74cba66",
        "server": "65535",
        "farm": 66,
        "title": "DSCN0442",
        "ispublic": 1,
        "isfriend": 0,
        "isfamily": 0
      },
      {
        "id": "49195131666",
        "owner": "142542809@N02",
        "secret": "75171e49b0",
        "server": "65535",
        "farm": 66,
        "title": "Sports - Baseball - Little Leage - Woodlawn - Parade - Slide - 1984",
        "ispublic": 1,
        "isfriend": 0,
        "isfamily": 0
      },
      {
        "id": "49195337927",
        "owner": "27512150@N00",
        "secret": "06edc60347",
        "server": "65535",
        "farm": 66,
        "title": "DSCN0441",
        "ispublic": 1,
        "isfriend": 0,
        "isfamily": 0
      },
      {
        "id": "49195145006",
        "owner": "27512150@N00",
        "secret": "6ee0780d34",
        "server": "65535",
        "farm": 66,
        "title": "DSCN0440",
        "ispublic": 1,
        "isfriend": 0,
        "isfamily": 0
      },
      {
        "id": "49194641008",
        "owner": "27512150@N00",
        "secret": "aa15585a18",
        "server": "65535",
        "farm": 66,
        "title": "DSCN0439",
        "ispublic": 1,
        "isfriend": 0,
        "isfamily": 0
      },
      {
        "id": "49195337657",
        "owner": "27512150@N00",
        "secret": "1a919136ac",
        "server": "65535",
        "farm": 66,
        "title": "DSCN0438",
        "ispublic": 1,
        "isfriend": 0,
        "isfamily": 0
      },
      {
        "id": "49195144781",
        "owner": "27512150@N00",
        "secret": "e65d216354",
        "server": "65535",
        "farm": 66,
        "title": "DSCN0437",
        "ispublic": 1,
        "isfriend": 0,
        "isfamily": 0
      },
      {
        "id": "49195280772",
        "owner": "40123674@N08",
        "secret": "6efac6825c",
        "server": "65535",
        "farm": 66,
        "title": "Downtown Art Gallery - Senior Thesis Exhibit",
        "ispublic": 1,
        "isfriend": 0,
        "isfamily": 0
      },
      {
        "id": "49195280542",
        "owner": "40123674@N08",
        "secret": "d94d302fd8",
        "server": "65535",
        "farm": 66,
        "title": "Downtown Art Gallery - Senior Thesis Exhibit",
        "ispublic": 1,
        "isfriend": 0,
        "isfamily": 0
      },
      {
        "id": "49195280407",
        "owner": "40123674@N08",
        "secret": "c408b0b749",
        "server": "65535",
        "farm": 66,
        "title": "Downtown Art Gallery - Senior Thesis Exhibit",
        "ispublic": 1,
        "isfriend": 0,
        "isfamily": 0
      },
      {
        "id": "49195088456",
        "owner": "40123674@N08",
        "secret": "9b38a22859",
        "server": "65535",
        "farm": 66,
        "title": "Downtown Art Gallery - Senior Thesis Exhibit",
        "ispublic": 1,
        "isfriend": 0,
        "isfamily": 0
      },
      {
        "id": "49195280157",
        "owner": "40123674@N08",
        "secret": "0032b26e39",
        "server": "65535",
        "farm": 66,
        "title": "Downtown Art Gallery - Senior Thesis Exhibit",
        "ispublic": 1,
        "isfriend": 0,
        "isfamily": 0
      }
    ]
  },
  "stat": "ok"
}
